{
  "attribution": "",
  "bounds": [
    3.091234,
    50.46669,
    7.54906,
    54.683876
  ],
  "center": [
    4.9461,
    52.3666,
    8
  ],
  "format": "pbf",
  "minzoom": 6,
  "maxzoom": 14,
  "name": "cbs_armoede_2021",
  "description": null,
  "scheme": "xyz",
  "tilejson": "2.1.0",
  "tiles": [
    "https://files.commondatafactory.nl/tiles/cbs_energiearmoede_2021/{z}/{x}/{y}.pbf"
  ],
  "grids": [],
  "data": [],
  "version": "1.0.0",
  "template": null,
  "legend": null,
  "vector_layers": [
    {
      "version": 2,
      "extent": 4096,
      "id": "monitorarmoede2021",
      "name": "monitorarmoede2021",
      "geometry_type": "polygon",
      "minzoom": 6,
      "maxzoom": 14,
      "tiles": [
        "https://files.commondatafactory.nl/tiles/cbs_energiearmoede_2021/{z}/{x}/{y}.pbf"
      ]
    },
    {
      "version": 2,
      "extent": 4096,
      "id": "admin",
      "name": "admin",
      "geometry_type": "polygon",
      "minzoom": 6,
      "maxzoom": 14,
      "tiles": [
        "https://files.commondatafactory.nl/tiles/cbs_energiearmoede_2021{z}/{x}/{y}.pbf"
      ]
    },
    {
      "version": 2,
      "extent": 4096,
      "id": "labels",
      "name": "labels",
      "geometry_type": "point",
      "minzoom": 6,
      "maxzoom": 14,
      "tiles": [
        "https://files.commondatafactory.nl/tiles/cbs_energiearmoede_2021{z}/{x}/{y}.pbf"
      ]
    }
  ]
}
